Interactive graphs • simplevis
…
These ggplot graphs have been designed that users can convert them easily to html interactive objects by wrapping them in plotly::ggplotly(plot). The plotly_camera function turns off all widgets other than the camera to make a cleaner graph.

The plotly::ggplotly function provides the ability to convert the ggplot to an interactive object.

plot_data <- ggplot2::diamonds %>%
  slice_sample(prop = 0.05)

plot_data
#> # A tibble: 2,697 x 10
#>    carat cut       color clarity depth table price     x     y     z
#>    <dbl> <ord>     <ord> <ord>   <dbl> <dbl> <int> <dbl> <dbl> <dbl>
#>  1  1    Premium   G     VS2      58.6    61  6048  6.61  6.57  3.86
#>  2  0.35 Ideal     G     IF       61.5    55  1001  4.53  4.57  2.8 
#>  3  1.05 Very Good I     VS2      63.2    59  4986  6.47  6.44  4.08
#>  4  1.16 Ideal     G     VVS2     62      56  8646  6.71  6.75  4.17
#>  5  1.62 Premium   I     VS1      61.7    59 10362  7.55  7.47  4.63
#>  6  2.03 Very Good D     SI2      62.4    59 18120  7.98  8.04  5   
#>  7  1.61 Premium   H     SI1      62.8    58  7754  7.47  7.4   4.67
#>  8  0.3  Premium   E     VS2      61.8    58   844  4.28  4.26  2.64
#>  9  0.4  Very Good D     VVS2     58.4    60   977  4.81  4.84  2.82
#> 10  1.01 Very Good I     SI2      62.1    56  3770  6.41  6.45  3.99
#> # … with 2,687 more rows

plot <- ggplot_point(plot_data,
                 x_var = carat,
                 y_var = price)

plotly::ggplotly(plot) %>%
  plotly_camera()

A customised tooltip can be provided using the text_var argument in simplevis functions with plotly::ggplotly(plot, tooltip = "text"). The tooltip = text argument specifies that the tooltip should be built using the text variable (i.e. text_var) instead of by default.

plot_data <- ggplot2::diamonds %>%
  slice_sample(prop = 0.05)

plot_data
#> # A tibble: 2,697 x 10
#>    carat cut       color clarity depth table price     x     y     z
#>    <dbl> <ord>     <ord> <ord>   <dbl> <dbl> <int> <dbl> <dbl> <dbl>
#>  1  0.39 Premium   J     VS1      61.6  59     616  4.67  4.71  2.89
#>  2  0.7  Fair      J     SI1      63    57    1723  5.55  5.6   3.51
#>  3  1.1  Very Good F     VS2      62.7  58.5  7272  6.5   6.59  4.1 
#>  4  0.34 Premium   D     VS2      59.3  58    1033  4.55  4.52  2.69
#>  5  0.91 Good      D     SI2      63.8  58    3848  6.04  6.09  3.87
#>  6  0.44 Ideal     E     SI1      62.6  56     810  4.84  4.9   3.05
#>  7  0.3  Very Good G     VVS1     63.1  58    1013  4.31  4.28  2.71
#>  8  2.37 Ideal     H     SI2      62.1  55   16937  8.52  8.54  5.3 
#>  9  0.83 Very Good E     SI1      63.8  54    3295  5.96  6.04  3.83
#> 10  0.3  Very Good H     SI1      62.9  57     421  4.26  4.29  2.69
#> # … with 2,687 more rows
…
plotly::ggplotly(plot, tooltip = "text") %>%
   plotly_camera()

A column called text of all (or predefined) variables in the data can be built using the mutate_text function. Note that the column name is converted to sentence case with underscores converted to spaces.

plot_data <- ggplot2::diamonds %>%
  slice_sample(prop = 0.05) %>%
  mutate_text()

plot_data
#> # A tibble: 2,697 x 11
#>    carat cut    color clarity depth table price     x     y     z text          
#>    <dbl> <ord>  <ord> <ord>   <dbl> <dbl> <int> <dbl> <dbl> <dbl> <chr>         
#>  1  0.5  Premi… D     VS2      60.2    57  1845  5.21  5.15  3.12 Carat: 0.5<br…
#>  2  0.3  Premi… D     VS2      61      58   710  4.32  4.34  2.64 Carat: 0.3<br…
#>  3  0.31 Good   D     SI1      63.8    57   684  4.33  4.29  2.75 Carat: 0.31<b…
#>  4  0.38 Ideal  F     VVS1     62.2    57  1257  4.68  4.64  2.9  Carat: 0.38<b…
#>  5  0.32 Premi… H     VS2      61.7    59   505  4.35  4.4   2.7  Carat: 0.32<b…
#>  6  0.3  Very … H     VS2      60.9    61   473  4.27  4.3   2.61 Carat: 0.3<br…
#>  7  0.54 Ideal  G     VVS2     61.8    55  1829  5.22  5.3   3.24 Carat: 0.54<b…
#>  8  0.32 Ideal  E     SI1      61.9    56   720  4.43  4.39  2.73 Carat: 0.32<b…
#>  9  0.3  Ideal  H     VS2      61.8    58   491  4.26  4.28  2.64 Carat: 0.3<br…
#> 10  0.28 Very … F     VVS1     60.1    59   642  4.24  4.25  2.55 Carat: 0.28<b…
#> # … with 2,687 more rows
…
plotly::ggplotly(plot, tooltip = "text") %>%
  plotly_camera()

A column called text of all (or predefined) variables in the data can be built using the mutate_text function.

plot_data <- ggplot2::diamonds %>%
  slice_sample(prop = 0.05) %>%
  mutate_text(c("carat", "cut", "color", "clarity", "depth"))

plot_data
#> # A tibble: 2,697 x 11
#>    carat cut    color clarity depth table price     x     y     z text          
#>    <dbl> <ord>  <ord> <ord>   <dbl> <dbl> <int> <dbl> <dbl> <dbl> <chr>         
#>  1  1.75 Premi… G     VS2      61.5    59 16783  7.76  7.66  4.74 Carat: 1.75<b…
#>  2  1.03 Ideal  G     VVS1     61.7    56  7708  6.45  6.56  4    Carat: 1.03<b…
#>  3  0.7  Very … I     SI1      62.7    56  1918  5.64  5.68  3.55 Carat: 0.7<br…
#>  4  0.3  Premi… E     VS2      62.8    59   844  4.26  4.24  2.67 Carat: 0.3<br…
#>  5  0.3  Premi… G     SI1      58.8    60   574  4.39  4.35  2.57 Carat: 0.3<br…
#>  6  0.93 Very … J     VS2      62.8    56  3576  6.14  6.22  3.88 Carat: 0.93<b…
#>  7  0.4  Ideal  J     VVS2     61.8    55   662  4.76  4.79  2.95 Carat: 0.4<br…
#>  8  0.81 Very … G     SI1      62.5    60  2806  5.89  5.94  3.69 Carat: 0.81<b…
#>  9  1.03 Very … G     SI2      61.4    54  4466  6.52  6.57  4.02 Carat: 1.03<b…
#> 10  0.7  Ideal  G     SI1      61.7    55  2965  5.7   5.73  3.53 Carat: 0.7<br…
#> # … with 2,687 more rows
…
