Colour • simplevis
…
All simplevis _col functions provide for colouring by a categorical variable.

In addition, sf and point functions provide for colouring by a numeric variable.

You do this by specifying whether you want to do this by:

defining whether the col_method is to be by bin or quantile

defining a vector or col_cuts. These should be between 0 and infinity (Inf) for bin and between 0 and 1 for quantile

plot_data <- ggplot2::diamonds %>% 
  slice_sample(prop = 0.01)

plot_data
#> # A tibble: 539 x 10
#>    carat cut       color clarity depth table price     x     y     z
#>    <dbl> <ord>     <ord> <ord>   <dbl> <dbl> <int> <dbl> <dbl> <dbl>
#>  1  0.54 Very Good F     VVS2     60.2    59  2198  5.27  5.3   3.18
#>  2  1    Premium   F     SI1      59.3    60  4939  6.61  6.57  3.91
#>  3  1.58 Premium   H     SI1      61.5    59 10738  7.47  7.45  4.59
#>  4  1.51 Very Good E     SI1      62.9    62  9474  7.21  7.31  4.57
#>  5  0.42 Ideal     G     SI1      62.9    54   945  4.81  4.79  3.02
#>  6  0.27 Ideal     F     IF       61.8    55   760  4.14  4.21  2.57
#>  7  0.52 Ideal     E     SI2      62.9    56  1290  5.12  5.08  3.21
#>  8  0.9  Very Good I     SI1      60.5    58  3220  6.22  6.27  3.78
#>  9  0.7  Fair      G     VS2      66.5    57  2575  5.4   5.46  3.61
#> 10  0.37 Very Good E     VS1      60.2    56   925  4.68  4.71  2.83
#> # ... with 529 more rows
…
plot_data <- ggplot2::diamonds %>%
  mutate(cut = stringr::str_to_sentence(cut)) %>%
  mutate(cut = factor(cut, levels = c("Fair", "Good", "Very good", "Premium", "Ideal"))) %>% 
  group_by(cut, clarity) %>%
  summarise(average_price = round(mean(price) / 1000, 1))

plot_data
#> # A tibble: 40 x 3
#> # Groups:   cut [5]
#>    cut   clarity average_price
#>    <fct> <ord>           <dbl>
#>  1 Fair  I1                3.7
#>  2 Fair  SI2               5.2
#>  3 Fair  SI1               4.2
#>  4 Fair  VS2               4.2
#>  5 Fair  VS1               4.2
#>  6 Fair  VVS2              3.3
#>  7 Fair  VVS1              3.9
#>  8 Fair  IF                1.9
#>  9 Good  I1                3.6
#> 10 Good  SI2               4.6
#> # ... with 30 more rows
…
