Examples • simplevis
…
      Source: vignettes/examples.Rmd
      examples.Rmd

library(dplyr)
library(simplevis)

# load dplyr, convert the iris data to a tibble so it's easier to print
iris <- iris %>%
  as_tibble() %>%
  janitor::clean_names() %>%
  mutate(species = stringr::str_to_sentence(species))

iris
#> # A tibble: 150 x 5
#>    sepal_length sepal_width petal_length petal_width species
#>           <dbl>       <dbl>        <dbl>       <dbl> <chr>  
#>  1          5.1         3.5          1.4         0.2 Setosa 
#>  2          4.9         3            1.4         0.2 Setosa 
#>  3          4.7         3.2          1.3         0.2 Setosa 
#>  4          4.6         3.1          1.5         0.2 Setosa 
#>  5          5           3.6          1.4         0.2 Setosa 
#>  6          5.4         3.9          1.7         0.4 Setosa 
#>  7          4.6         3.4          1.4         0.3 Setosa 
#>  8          5           3.4          1.5         0.2 Setosa 
#>  9          4.4         2.9          1.4         0.2 Setosa 
#> 10          4.9         3.1          1.5         0.1 Setosa 
#> # … with 140 more rows
…
