Plot examples • simplevis
…
            2020-09-14

      Source: vignettes/plot_examples.Rmd
      plot_examples.Rmd

Load dplyr, convert the iris data to a tibble so it’s easier to print.

library(dplyr)
library(simplevis)

iris <- iris %>% as_tibble()

iris
#> # A tibble: 150 x 5
#>    Sepal.Length Sepal.Width Petal.Length Petal.Width Species
#>           <dbl>       <dbl>        <dbl>       <dbl> <fct>  
#>  1          5.1         3.5          1.4         0.2 setosa 
#>  2          4.9         3            1.4         0.2 setosa 
#>  3          4.7         3.2          1.3         0.2 setosa 
#>  4          4.6         3.1          1.5         0.2 setosa 
#>  5          5           3.6          1.4         0.2 setosa 
#>  6          5.4         3.9          1.7         0.4 setosa 
#>  7          4.6         3.4          1.4         0.3 setosa 
#>  8          5           3.4          1.5         0.2 setosa 
#>  9          4.4         2.9          1.4         0.2 setosa 
#> 10          4.9         3.1          1.5         0.1 setosa 
#> # … with 140 more rows
…
Make a plot with a x var of date class.

plot_data <- plot_data %>%
  mutate(date = lubridate::ymd(paste0(year, "01-01", sep = "-")))

plot_data
#> # A tibble: 41 x 3
#>     year  wind date      
#>    <dbl> <dbl> <date>    
#>  1  1975  50.9 1975-01-01
#>  2  1976  59.9 1976-01-01
#>  3  1977  54.0 1977-01-01
#>  4  1978  40.5 1978-01-01
#>  5  1979  48.7 1979-01-01
#>  6  1980  53.7 1980-01-01
#>  7  1981  56.6 1981-01-01
#>  8  1982  49.5 1982-01-01
#>  9  1983  47.0 1983-01-01
#> 10  1984  51.4 1984-01-01
#> # … with 31 more rows
…
Make a ggplotly interactive plot with a different variable.

plot <- ggplot_scatter(iris, Sepal.Width, Sepal.Length, tip_var = Petal.Width)

plotly::ggplotly(plot, tooltip = "text")

Make a ggplotly interactive plot with custom tooltip that can be created with the add_tip function. Note that this function will convert snakecase column names to sentence case with underscores changed to spaces. The ggplotly argument tooltip = “text” is required to implement this in combination with the tip_var argument in the simplevis function.

plot_data <- iris %>%
  add_tip(c("Species", "Sepal.Width", "Sepal.Length", "Petal.Width"))

plot_data
#> # A tibble: 150 x 6
#>    Sepal.Length Sepal.Width Petal.Length Petal.Width Species tip_text           
#>           <dbl>       <dbl>        <dbl>       <dbl> <fct>   <chr>              
#>  1          5.1         3.5          1.4         0.2 setosa  Species: setosa<br…
#>  2          4.9         3            1.4         0.2 setosa  Species: setosa<br…
#>  3          4.7         3.2          1.3         0.2 setosa  Species: setosa<br…
#>  4          4.6         3.1          1.5         0.2 setosa  Species: setosa<br…
#>  5          5           3.6          1.4         0.2 setosa  Species: setosa<br…
#>  6          5.4         3.9          1.7         0.4 setosa  Species: setosa<br…
#>  7          4.6         3.4          1.4         0.3 setosa  Species: setosa<br…
#>  8          5           3.4          1.5         0.2 setosa  Species: setosa<br…
#>  9          4.4         2.9          1.4         0.2 setosa  Species: setosa<br…
#> 10          4.9         3.1          1.5         0.1 setosa  Species: setosa<br…
#> # … with 140 more rows
…
