Simplevis • simplevis
…
It is always recommended to add a title, x_title and y_title too.

Ggplot graphs

Graphs that are not coloured by a variable.

Identify the function that you need, then provide the data (aggregated, if necessary) and an x_var and a y_var.

plot_data <- ggplot2::diamonds %>%
  slice_sample(prop = 0.05) %>%
  as_tibble()

plot_data
#> # A tibble: 2,697 x 10
#>    carat cut       color clarity depth table price     x     y     z
#>    <dbl> <ord>     <ord> <ord>   <dbl> <dbl> <int> <dbl> <dbl> <dbl>
#>  1  0.33 Premium   H     VVS2     61.6  58     854  4.45  4.42  2.73
#>  2  0.46 Ideal     J     VS1      62.6  53.9   851  4.92  4.95  3.09
#>  3  0.7  Very Good E     SI1      62.9  57    2349  5.6   5.66  3.54
#>  4  0.31 Very Good G     VS2      61    56     544  4.35  4.37  2.66
#>  5  0.28 Ideal     G     IF       60.9  57     650  4.24  4.27  2.59
#>  6  0.31 Very Good E     SI1      62.8  57     544  4.32  4.34  2.72
#>  7  1    Ideal     D     SI2      61.5  56    4956  6.45  6.41  3.95
#>  8  1.82 Premium   I     VS1      61.4  60   13813  7.8   7.83  4.8 
#>  9  0.23 Very Good D     VVS2     59.6  61     499  3.99  4.03  2.39
#> 10  1.01 Good      G     VS2      63.7  56    5701  6.4   6.32  4.05
#> # … with 2,687 more rows
…
plot_data <- storms %>%
  group_by(year) %>%
  summarise(average_wind = mean(wind)) %>%
  as_tibble()

plot_data
#> # A tibble: 41 x 2
#>     year average_wind
#>    <dbl>        <dbl>
#>  1  1975         50.9
#>  2  1976         59.9
#>  3  1977         54.0
#>  4  1978         40.5
#>  5  1979         48.7
#>  6  1980         53.7
#>  7  1981         56.6
#>  8  1982         49.5
#>  9  1983         47.0
#> 10  1984         51.4
#> # … with 31 more rows
…
plot_data <- storms %>%
  group_by(year) %>%
  summarise(wind = mean(wind)) %>%
  as_tibble()

plot_data
#> # A tibble: 41 x 2
#>     year  wind
#>    <dbl> <dbl>
#>  1  1975  50.9
#>  2  1976  59.9
#>  3  1977  54.0
#>  4  1978  40.5
#>  5  1979  48.7
#>  6  1980  53.7
#>  7  1981  56.6
#>  8  1982  49.5
#>  9  1983  47.0
#> 10  1984  51.4
#> # … with 31 more rows
…
Note the boxplot functions transform the data to boxplot statistics by default.

plot_data <- iris %>%
  mutate(Species = stringr::str_to_sentence(Species)) %>%
  as_tibble()

plot_data
#> # A tibble: 150 x 5
#>    Sepal.Length Sepal.Width Petal.Length Petal.Width Species
#>           <dbl>       <dbl>        <dbl>       <dbl> <chr>  
#>  1          5.1         3.5          1.4         0.2 Setosa 
#>  2          4.9         3            1.4         0.2 Setosa 
#>  3          4.7         3.2          1.3         0.2 Setosa 
#>  4          4.6         3.1          1.5         0.2 Setosa 
#>  5          5           3.6          1.4         0.2 Setosa 
#>  6          5.4         3.9          1.7         0.4 Setosa 
#>  7          4.6         3.4          1.4         0.3 Setosa 
#>  8          5           3.4          1.5         0.2 Setosa 
#>  9          4.4         2.9          1.4         0.2 Setosa 
#> 10          4.9         3.1          1.5         0.1 Setosa 
#> # … with 140 more rows
…
Graphs that are coloured by a variable

To colour by a variable, use a _col function

plot_data <- ggplot2::diamonds %>%
  slice_sample(prop = 0.05) %>%
  as_tibble()

plot_data
#> # A tibble: 2,697 x 10
#>    carat cut       color clarity depth table price     x     y     z
#>    <dbl> <ord>     <ord> <ord>   <dbl> <dbl> <int> <dbl> <dbl> <dbl>
#>  1 2.23  Premium   J     SI1      62.4  59   14258  8.36  8.33  5.21
#>  2 0.580 Ideal     F     VVS1     61.6  57    2728  5.33  5.38  3.3 
#>  3 0.72  Premium   D     VS2      61.1  60    2721  5.74  5.69  3.49
#>  4 0.32  Ideal     J     VS1      62    54.7   442  4.39  4.42  2.73
#>  5 1.01  Good      G     VS2      63.6  60    5599  6.3   6.35  4.02
#>  6 1.21  Ideal     E     IF       61.8  56   17353  6.81  6.88  4.23
#>  7 1.2   Premium   F     SI1      60.2  58    6604  6.9   6.86  4.14
#>  8 1.5   Very Good I     VVS2     59.7  60   10551  7.46  7.62  4.5 
#>  9 1.26  Ideal     H     VS1      61.5  59    7845  6.94  6.91  4.26
#> 10 0.49  Premium   G     SI2      59.4  60    1084  5.17  5.14  3.06
#> # … with 2,687 more rows
…
plot_data <- ggplot2::diamonds %>%
  group_by(cut, clarity) %>%
  summarise(average_price = mean(price)) %>%
  mutate(average_price = average_price / 1000) %>%
  mutate(cut = stringr::str_to_sentence(cut)) %>%
  as_tibble()

plot_data
#> # A tibble: 40 x 3
#>    cut   clarity average_price
#>    <chr> <ord>           <dbl>
#>  1 Fair  I1               3.70
#>  2 Fair  SI2              5.17
#>  3 Fair  SI1              4.21
#>  4 Fair  VS2              4.17
#>  5 Fair  VS1              4.17
#>  6 Fair  VVS2             3.35
#>  7 Fair  VVS1             3.87
#>  8 Fair  IF               1.91
#>  9 Good  I1               3.60
#> 10 Good  SI2              4.58
#> # … with 30 more rows
…
Graphs that are facetted by a variable

To facet by a variable, use a _facet function.

plot_data <- ggplot2::diamonds %>%
  mutate(cut = stringr::str_to_sentence(cut)) %>%
  group_by(cut, clarity) %>%
  summarise(average_price = mean(price)) %>%
  mutate(average_price = average_price / 1000) %>%
  as_tibble()

plot_data
#> # A tibble: 40 x 3
#>    cut   clarity average_price
#>    <chr> <ord>           <dbl>
#>  1 Fair  I1               3.70
#>  2 Fair  SI2              5.17
#>  3 Fair  SI1              4.21
#>  4 Fair  VS2              4.17
#>  5 Fair  VS1              4.17
#>  6 Fair  VVS2             3.35
#>  7 Fair  VVS1             3.87
#>  8 Fair  IF               1.91
#>  9 Good  I1               3.60
#> 10 Good  SI2              4.58
#> # … with 30 more rows
…
