Convert Numeric to Factor, with custom formatting — cut_format • simplevis
…
      ordered_result = TRUE
    )
  ) %>%
  mutate(
    flipper_length_mm3 = simplevis:::cut_format(
      flipper_length_mm,
      c(0, 150, 175, 200, Inf),
      right = TRUE,
      include.lowest = TRUE,
      dig.lab = 50,
      ordered_result = TRUE,
      format_fun = scales::label_dollar(accuracy = 0.1)
    )
  )
#> # A tibble: 344 × 3
#>    flipper_length_mm flipper_length_mm2 flipper_length_mm3
#>                <int> <ord>              <ord>             
#>  1               181 (175, 200]         ($175.0, $200.0]  
#>  2               186 (175, 200]         ($175.0, $200.0]  
#>  3               195 (175, 200]         ($175.0, $200.0]  
#>  4                NA NA                 NA                
#>  5               193 (175, 200]         ($175.0, $200.0]  
#>  6               190 (175, 200]         ($175.0, $200.0]  
#>  7               181 (175, 200]         ($175.0, $200.0]  
#>  8               195 (175, 200]         ($175.0, $200.0]  
#>  9               193 (175, 200]         ($175.0, $200.0]  
#> 10               190 (175, 200]         ($175.0, $200.0]  
#> # … with 334 more rows
…
